<svg width="676" height="1024" viewBox="0 0 676 1024" fill="none" xmlns="http://www.w3.org/2000/svg">
<path d="M324.169 0C501.296 0 675.68 81.575 675.68 276.696C675.68 456.632 469.489 525.83 425.207 590.849C391.963 639.213 403.066 707.17 311.727 707.17C252.227 707.17 223.163 658.774 223.163 614.492C223.163 449.709 465.276 412.416 465.276 276.729C465.276 202.044 415.573 157.763 332.496 157.763C155.369 157.763 224.535 340.376 90.3828 340.376C41.9538 340.376 0.382818 311.312 0.382818 255.992C0.349818 120.273 155.304 0 324.169 0V0ZM317.279 797.007C379.456 797.007 430.759 848.147 430.759 910.52C430.759 972.893 379.554 1024.03 317.279 1024.03C255.004 1024.03 203.766 972.959 203.766 910.52C203.766 848.179 255.004 797.007 317.279 797.007V797.007Z" fill="url(#paint0_linear)"/>
<defs>
<linearGradient id="paint0_linear" x1="0.38281" y1="512.016" x2="675.68" y2="512.016" gradientUnits="userSpaceOnUse">
<stop stop-color="#D7B77C"/>
<stop offset="1" stop-color="#FBE0AF"/>
</linearGradient>
</defs>
</svg>
